goal_full_empty/src/dump_vcs_run.vcd
$date
	Sat Oct  3 12:39:35 2020
$end

$version
	Synopsys VCS version P-2019.06-1
$end

$timescale
	1ns
$end

$comment Csum: 1 cc07465b3c121f51 $end


$scope module tb $end
$var reg 1 ! clk $end
$var reg 8 " datain [7:0] $end
$var reg 1 # pop $end
$var reg 1 $ push $end
$var reg 1 % rst $end
$var wire 8 & dataout [7:0] $end
$var wire 1 ' empty $end
$var wire 1 ( full $end

$scope task tick $end
$var reg 32 ) n [31:0] $end
$upscope $end


$scope fork unnamed$$_vcs_0 $end

$scope begin unnamed$$_vcs_1 $end
$upscope $end


$scope begin unnamed$$_vcs_2 $end
$upscope $end

$upscope $end


$scope module dut $end
$var wire 1 ! clk $end
$var wire 1 % rst $end
$var wire 1 $ push $end
$var wire 1 # pop $end
$var wire 8 " datain [7:0] $end
$var reg 1 ( full $end
$var reg 1 ' empty $end
$var wire 8 & dataout [7:0] $end
$var reg 2 * rd_ptr [1:0] $end
$var reg 2 + wr_ptr [1:0] $end
$var reg 3 , cnt [2:0] $end
$var reg 3 - cnt_w [2:0] $end
$upscope $end

$upscope $end

$enddefinitions $end

#0
$dumpvars
0!
x'
x(
0#
0$
1%
bxxx ,
bxxx -
b00000000 "
bxxxxxxxx &
bxx *
b00000000000000000000000000001010 )
bxx +
$end
#5
1!
b000 ,
b00 *
b00 +
1'
0(
b000 -
#10
0!
#15
1!
#20
0!
#25
1!
#30
0!
#35
1!
#40
0!
#45
1!
#50
0!
#55
1!
#60
0!
#65
1!
#70
0!
#75
1!
#80
0!
#85
1!
#90
0!
#95
1!
0%
#100
0!
#105
1!
#110
0!
#115
1!
#120
0!
#125
1!
#130
0!
#135
1!
#140
0!
#145
1!
#150
0!
#155
1!
#160
0!
#165
1!
#170
0!
#175
1!
#180
0!
#185
1!
#190
0!
#195
1!
b00000000000000000000001111101000 )
b00000000000000000000000000000001 )
b00000000000000000000000000001010 )
#200
0!
#205
1!
b00000000000000000000000000000001 )
1$
b00000001 "
0'
b001 -
#210
0!
#215
1!
b00000010 "
b001 ,
b00000001 &
b01 +
b010 -
#220
0!
#225
1!
b00000011 "
b010 ,
b10 +
b011 -
#230
0!
#235
1!
b00000100 "
b011 ,
b11 +
1(
b100 -
#240
0!
#245
1!
0$
b100 ,
b00 +
#250
0!
#255
1!
#260
0!
#265
1!
#270
0!
#275
1!
#280
0!
#285
1!
#290
0!
#295
1!
b00000000000000000000000000001010 )
1#
0(
b011 -
#300
0!
#305
1!
b00000000000000000000000000000001 )
1$
b00000101 "
b011 ,
b01 *
b00000010 &
#310
0!
#315
1!
b00000110 "
b01 +
b10 *
b00000011 &
#320
0!
#325
1!
b00000111 "
b10 +
b11 *
b00000100 &
#330
0!
#335
1!
b00001000 "
b11 +
b00 *
b00000101 &
#340
0!
#345
1!
b00001001 "
b00 +
b01 *
b00000110 &
#350
0!
#355
1!
b00001010 "
b01 +
b10 *
b00000111 &
#360
0!
#365
1!
b00001011 "
b10 +
b11 *
b00001000 &
#370
0!
#375
1!
b00001100 "
b11 +
b00 *
b00001001 &
#380
0!
#385
1!
b00001101 "
b00 +
b01 *
b00001010 &
#390
0!
#395
1!
b00000000000000000000000000001010 )
b00001110 "
b01 +
b10 *
b00001011 &
#400
0!
#405
1!
b00000000000000000000000000000001 )
b00001111 "
b10 +
b11 *
b00001100 &
#410
0!
#415
1!
b00010000 "
b11 +
b00 *
b00001101 &
#420
0!
#425
1!
b00010001 "
b00 +
b01 *
b00001110 &
#430
0!
#435
1!
b00010010 "
b01 +
b10 *
b00001111 &
#440
0!
#445
1!
b00010011 "
b10 +
b11 *
b00010000 &
#450
0!
#455
1!
b00010100 "
b11 +
b00 *
b00010001 &
#460
0!
#465
1!
b00010101 "
b00 +
b01 *
b00010010 &
#470
0!
#475
1!
b00010110 "
b01 +
b10 *
b00010011 &
#480
0!
#485
1!
b00010111 "
b10 +
b11 *
b00010100 &
#490
0!
#495
1!
b00000000000000000000000000001010 )
b00011000 "
b11 +
b00 *
b00010101 &
#500
0!
#505
1!
b00000000000000000000000000000001 )
b00011001 "
b00 +
b01 *
b00010110 &
#510
0!
#515
1!
b00011010 "
b01 +
b10 *
b00010111 &
#520
0!
#525
1!
b00011011 "
b10 +
b11 *
b00011000 &
#530
0!
#535
1!
b00011100 "
b11 +
b00 *
b00011001 &
#540
0!
#545
1!
b00011101 "
b00 +
b01 *
b00011010 &
#550
0!
#555
1!
b00011110 "
b01 +
b10 *
b00011011 &
#560
0!
#565
1!
b00011111 "
b10 +
b11 *
b00011100 &
#570
0!
#575
1!
b00100000 "
b11 +
b00 *
b00011101 &
#580
0!
#585
1!
b00100001 "
b00 +
b01 *
b00011110 &
#590
0!
#595
1!
b00000000000000000000000000001010 )
b00100010 "
b01 +
b10 *
b00011111 &
#600
0!
#605
1!
b00000000000000000000000000000001 )
b00100011 "
b10 +
b11 *
b00100000 &
#610
0!
#615
1!
b00100100 "
b11 +
b00 *
b00100001 &
#620
0!
#625
1!
b00100101 "
b00 +
b01 *
b00100010 &
#630
0!
#635
1!
b00100110 "
b01 +
b10 *
b00100011 &
#640
0!
#645
1!
b00100111 "
b10 +
b11 *
b00100100 &
#650
0!
#655
1!
b00101000 "
b11 +
b00 *
b00100101 &
#660
0!
#665
1!
b00101001 "
b00 +
b01 *
b00100110 &
#670
0!
#675
1!
b00101010 "
b01 +
b10 *
b00100111 &
#680
0!
#685
1!
b00101011 "
b10 +
b11 *
b00101000 &
#690
0!
#695
1!
b00000000000000000000000000001010 )
b00101100 "
b11 +
b00 *
b00101001 &
#700
0!
#705
1!
b00000000000000000000000000000001 )
b00101101 "
b00 +
b01 *
b00101010 &
#710
0!
#715
1!
b00101110 "
b01 +
b10 *
b00101011 &
#720
0!
#725
1!
b00101111 "
b10 +
b11 *
b00101100 &
#730
0!
#735
1!
b00110000 "
b11 +
b00 *
b00101101 &
#740
0!
#745
1!
b00110001 "
b00 +
b01 *
b00101110 &
#750
0!
#755
1!
b00110010 "
b01 +
b10 *
b00101111 &
#760
0!
#765
1!
b00110011 "
b10 +
b11 *
b00110000 &
#770
0!
#775
1!
b00110100 "
b11 +
b00 *
b00110001 &
#780
0!
#785
1!
b00110101 "
b00 +
b01 *
b00110010 &
#790
0!
#795
1!
b00000000000000000000000000001010 )
b00110110 "
b01 +
b10 *
b00110011 &
#800
0!
#805
1!
b00000000000000000000000000000001 )
b00110111 "
b10 +
b11 *
b00110100 &
#810
0!
#815
1!
b00111000 "
b11 +
b00 *
b00110101 &
#820
0!
#825
1!
b00111001 "
b00 +
b01 *
b00110110 &
#830
0!
#835
1!
b00111010 "
b01 +
b10 *
b00110111 &
#840
0!
#845
1!
b00111011 "
b10 +
b11 *
b00111000 &
#850
0!
#855
1!
b00111100 "
b11 +
b00 *
b00111001 &
#860
0!
#865
1!
b00111101 "
b00 +
b01 *
b00111010 &
#870
0!
#875
1!
b00111110 "
b01 +
b10 *
b00111011 &
#880
0!
#885
1!
b00111111 "
b10 +
b11 *
b00111100 &
#890
0!
#895
1!
b00000000000000000000000000001010 )
b01000000 "
b11 +
b00 *
b00111101 &
#900
0!
#905
1!
b00000000000000000000000000000001 )
b01000001 "
b00 +
b01 *
b00111110 &
#910
0!
#915
1!
b01000010 "
b01 +
b10 *
b00111111 &
#920
0!
#925
1!
b01000011 "
b10 +
b11 *
b01000000 &
#930
0!
#935
1!
b01000100 "
b11 +
b00 *
b01000001 &
#940
0!
#945
1!
b01000101 "
b00 +
b01 *
b01000010 &
#950
0!
#955
1!
b01000110 "
b01 +
b10 *
b01000011 &
#960
0!
#965
1!
b01000111 "
b10 +
b11 *
b01000100 &
#970
0!
#975
1!
b01001000 "
b11 +
b00 *
b01000101 &
#980
0!
#985
1!
b01001001 "
b00 +
b01 *
b01000110 &
#990
0!
#995
1!
b00000000000000000000000000001010 )
b01001010 "
b01 +
b10 *
b01000111 &
#1000
0!
#1005
1!
b00000000000000000000000000000001 )
b01001011 "
b10 +
b11 *
b01001000 &
#1010
0!
#1015
1!
b01001100 "
b11 +
b00 *
b01001001 &
#1020
0!
#1025
1!
b01001101 "
b00 +
b01 *
b01001010 &
#1030
0!
#1035
1!
b01001110 "
b01 +
b10 *
b01001011 &
#1040
0!
#1045
1!
b01001111 "
b10 +
b11 *
b01001100 &
#1050
0!
#1055
1!
b01010000 "
b11 +
b00 *
b01001101 &
#1060
0!
#1065
1!
b01010001 "
b00 +
b01 *
b01001110 &
#1070
0!
#1075
1!
b01010010 "
b01 +
b10 *
b01001111 &
#1080
0!
#1085
1!
b01010011 "
b10 +
b11 *
b01010000 &
#1090
0!
#1095
1!
b00000000000000000000000000001010 )
b01010100 "
b11 +
b00 *
b01010001 &
#1100
0!
#1105
1!
b00000000000000000000000000000001 )
b01010101 "
b00 +
b01 *
b01010010 &
#1110
0!
#1115
1!
b01010110 "
b01 +
b10 *
b01010011 &
#1120
0!
#1125
1!
b01010111 "
b10 +
b11 *
b01010100 &
#1130
0!
#1135
1!
b01011000 "
b11 +
b00 *
b01010101 &
#1140
0!
#1145
1!
b01011001 "
b00 +
b01 *
b01010110 &
#1150
0!
#1155
1!
b01011010 "
b01 +
b10 *
b01010111 &
#1160
0!
#1165
1!
b01011011 "
b10 +
b11 *
b01011000 &
#1170
0!
#1175
1!
b01011100 "
b11 +
b00 *
b01011001 &
#1180
0!
#1185
1!
b01011101 "
b00 +
b01 *
b01011010 &
#1190
0!
#1195
1!
b00000000000000000000000000001010 )
b01011110 "
b01 +
b10 *
b01011011 &
#1200
0!
#1205
1!
b10 +
b11 *
b01011100 &
#1210
0!
#1215
1!
b11 +
b00 *
b01011101 &
#1220
0!
#1225
1!
b00 +
b01 *
b01011110 &
#1230
0!
#1235
1!
b01 +
b10 *
#1240
0!
#1245
1!
b10 +
b11 *
#1250
0!
#1255
1!
b11 +
b00 *
#1260
0!
#1265
1!
b00 +
b01 *
#1270
0!
#1275
1!
b01 +
b10 *
#1280
0!
#1285
1!
b10 +
b11 *
#1290
0!
#1295
1!
b11 +
b00 *
#1300
0!
#1305
1!
b00 +
b01 *
#1310
0!
#1315
1!
b01 +
b10 *
#1320
0!
#1325
1!
b10 +
b11 *
#1330
0!
#1335
1!
b11 +
b00 *
#1340
0!
#1345
1!
b00 +
b01 *
#1350
0!
#1355
1!
b01 +
b10 *
#1360
0!
#1365
1!
b10 +
b11 *
#1370
0!
#1375
1!
b11 +
b00 *
#1380
0!
#1385
1!
b00 +
b01 *
#1390
0!
#1395
1!
b01 +
b10 *
#1400
0!
#1405
1!
b10 +
b11 *
#1410
0!
#1415
1!
b11 +
b00 *
#1420
0!
#1425
1!
b00 +
b01 *
#1430
0!
#1435
1!
b01 +
b10 *
#1440
0!
#1445
1!
b10 +
b11 *
#1450
0!
#1455
1!
b11 +
b00 *
#1460
0!
#1465
1!
b00 +
b01 *
#1470
0!
#1475
1!
b01 +
b10 *
#1480
0!
#1485
1!
b10 +
b11 *
#1490
0!
#1495
1!
b11 +
b00 *
#1500
0!
#1505
1!
b00 +
b01 *
#1510
0!
#1515
1!
b01 +
b10 *
#1520
0!
#1525
1!
b10 +
b11 *
#1530
0!
#1535
1!
b11 +
b00 *
#1540
0!
#1545
1!
b00 +
b01 *
#1550
0!
#1555
1!
b01 +
b10 *
#1560
0!
#1565
1!
b10 +
b11 *
#1570
0!
#1575
1!
b11 +
b00 *
#1580
0!
#1585
1!
b00 +
b01 *
#1590
0!
#1595
1!
b01 +
b10 *
#1600
0!
#1605
1!
b10 +
b11 *
#1610
0!
#1615
1!
b11 +
b00 *
#1620
0!
#1625
1!
b00 +
b01 *
#1630
0!
#1635
1!
b01 +
b10 *
#1640
0!
#1645
1!
b10 +
b11 *
#1650
0!
#1655
1!
b11 +
b00 *
#1660
0!
#1665
1!
b00 +
b01 *
#1670
0!
#1675
1!
b01 +
b10 *
#1680
0!
#1685
1!
b10 +
b11 *
#1690
0!
#1695
1!
b11 +
b00 *
#1700
0!
#1705
1!
b00 +
b01 *
#1710
0!
#1715
1!
b01 +
b10 *
#1720
0!
#1725
1!
b10 +
b11 *
#1730
0!
#1735
1!
b11 +
b00 *
#1740
0!
#1745
1!
b00 +
b01 *
#1750
0!
#1755
1!
b01 +
b10 *
#1760
0!
#1765
1!
b10 +
b11 *
#1770
0!
#1775
1!
b11 +
b00 *
#1780
0!
#1785
1!
b00 +
b01 *
#1790
0!
#1795
1!
b01 +
b10 *
#1800
0!
#1805
1!
b10 +
b11 *
#1810
0!
#1815
1!
b11 +
b00 *
#1820
0!
#1825
1!
b00 +
b01 *
#1830
0!
#1835
1!
b01 +
b10 *
#1840
0!
#1845
1!
b10 +
b11 *
#1850
0!
#1855
1!
b11 +
b00 *
#1860
0!
#1865
1!
b00 +
b01 *
#1870
0!
#1875
1!
b01 +
b10 *
#1880
0!
#1885
1!
b10 +
b11 *
#1890
0!
#1895
1!
b11 +
b00 *
#1900
0!
#1905
1!
b00 +
b01 *
#1910
0!
#1915
1!
b01 +
b10 *
#1920
0!
#1925
1!
b10 +
b11 *
#1930
0!
#1935
1!
b11 +
b00 *
#1940
0!
#1945
1!
b00 +
b01 *
#1950
0!
#1955
1!
b01 +
b10 *
#1960
0!
#1965
1!
b10 +
b11 *
#1970
0!
#1975
1!
b11 +
b00 *
#1980
0!
#1985
1!
b00 +
b01 *
#1990
0!
#1995
1!
b01 +
b10 *
#2000
0!
#2005
1!
b10 +
b11 *
#2010
0!
#2015
1!
b11 +
b00 *
#2020
0!
#2025
1!
b00 +
b01 *
#2030
0!
#2035
1!
b01 +
b10 *
#2040
0!
#2045
1!
b10 +
b11 *
#2050
0!
#2055
1!
b11 +
b00 *
#2060
0!
#2065
1!
b00 +
b01 *
#2070
0!
#2075
1!
b01 +
b10 *
#2080
0!
#2085
1!
b10 +
b11 *
#2090
0!
#2095
1!
b11 +
b00 *
#2100
0!
#2105
1!
b00 +
b01 *
#2110
0!
#2115
1!
b01 +
b10 *
#2120
0!
#2125
1!
b10 +
b11 *
#2130
0!
#2135
1!
b11 +
b00 *
#2140
0!
#2145
1!
b00 +
b01 *
#2150
0!
#2155
1!
b01 +
b10 *
#2160
0!
#2165
1!
b10 +
b11 *
#2170
0!
#2175
1!
b11 +
b00 *
#2180
0!
#2185
1!
b00 +
b01 *
#2190
0!
#2195
1!
b01 +
b10 *
#2200
0!
#2205
1!
b10 +
b11 *
#2210
0!
#2215
1!
b11 +
b00 *
#2220
0!
#2225
1!
b00 +
b01 *
#2230
0!
#2235
1!
b01 +
b10 *
#2240
0!
#2245
1!
b10 +
b11 *
#2250
0!
#2255
1!
b11 +
b00 *
#2260
0!
#2265
1!
b00 +
b01 *
#2270
0!
#2275
1!
b01 +
b10 *
#2280
0!
#2285
1!
b10 +
b11 *
#2290
0!
#2295
1!
b11 +
b00 *
#2300
0!
#2305
1!
b00 +
b01 *
#2310
0!
#2315
1!
b01 +
b10 *
#2320
0!
#2325
1!
b10 +
b11 *
#2330
0!
#2335
1!
b11 +
b00 *
#2340
0!
#2345
1!
b00 +
b01 *
#2350
0!
#2355
1!
b01 +
b10 *
#2360
0!
#2365
1!
b10 +
b11 *
#2370
0!
#2375
1!
b11 +
b00 *
#2380
0!
#2385
1!
b00 +
b01 *
#2390
0!
#2395
1!
b01 +
b10 *
#2400
0!
#2405
1!
b10 +
b11 *
#2410
0!
#2415
1!
b11 +
b00 *
#2420
0!
#2425
1!
b00 +
b01 *
#2430
0!
#2435
1!
b01 +
b10 *
#2440
0!
#2445
1!
b10 +
b11 *
#2450
0!
#2455
1!
b11 +
b00 *
#2460
0!
#2465
1!
b00 +
b01 *
#2470
0!
#2475
1!
b01 +
b10 *
#2480
0!
#2485
1!
b10 +
b11 *
#2490
0!
#2495
1!
b11 +
b00 *
#2500
0!
#2505
1!
b00 +
b01 *
#2510
0!
#2515
1!
b01 +
b10 *
#2520
0!
#2525
1!
b10 +
b11 *
#2530
0!
#2535
1!
b11 +
b00 *
#2540
0!
#2545
1!
b00 +
b01 *
#2550
0!
#2555
1!
b01 +
b10 *
#2560
0!
#2565
1!
b10 +
b11 *
#2570
0!
#2575
1!
b11 +
b00 *
#2580
0!
#2585
1!
b00 +
b01 *
#2590
0!
#2595
1!
b01 +
b10 *
#2600
0!
#2605
1!
b10 +
b11 *
#2610
0!
#2615
1!
b11 +
b00 *
#2620
0!
#2625
1!
b00 +
b01 *
#2630
0!
#2635
1!
b01 +
b10 *
#2640
0!
#2645
1!
b10 +
b11 *
#2650
0!
#2655
1!
b11 +
b00 *
#2660
0!
#2665
1!
b00 +
b01 *
#2670
0!
#2675
1!
b01 +
b10 *
#2680
0!
#2685
1!
b10 +
b11 *
#2690
0!
#2695
1!
b11 +
b00 *
#2700
0!
#2705
1!
b00 +
b01 *
#2710
0!
#2715
1!
b01 +
b10 *
#2720
0!
#2725
1!
b10 +
b11 *
#2730
0!
#2735
1!
b11 +
b00 *
#2740
0!
#2745
1!
b00 +
b01 *
#2750
0!
#2755
1!
b01 +
b10 *
#2760
0!
#2765
1!
b10 +
b11 *
#2770
0!
#2775
1!
b11 +
b00 *
#2780
0!
#2785
1!
b00 +
b01 *
#2790
0!
#2795
1!
b01 +
b10 *
#2800
0!
#2805
1!
b10 +
b11 *
#2810
0!
#2815
1!
b11 +
b00 *
#2820
0!
#2825
1!
b00 +
b01 *
#2830
0!
#2835
1!
b01 +
b10 *
#2840
0!
#2845
1!
b10 +
b11 *
#2850
0!
#2855
1!
b11 +
b00 *
#2860
0!
#2865
1!
b00 +
b01 *
#2870
0!
#2875
1!
b01 +
b10 *
#2880
0!
#2885
1!
b10 +
b11 *
#2890
0!
#2895
1!
b11 +
b00 *
#2900
0!
#2905
1!
b00 +
b01 *
#2910
0!
#2915
1!
b01 +
b10 *
#2920
0!
#2925
1!
b10 +
b11 *
#2930
0!
#2935
1!
b11 +
b00 *
#2940
0!
#2945
1!
b00 +
b01 *
#2950
0!
#2955
1!
b01 +
b10 *
#2960
0!
#2965
1!
b10 +
b11 *
#2970
0!
#2975
1!
b11 +
b00 *
#2980
0!
#2985
1!
b00 +
b01 *
#2990
0!
#2995
1!
b01 +
b10 *
#3000
0!
#3005
1!
b10 +
b11 *
#3010
0!
#3015
1!
b11 +
b00 *
#3020
0!
#3025
1!
b00 +
b01 *
#3030
0!
#3035
1!
b01 +
b10 *
#3040
0!
#3045
1!
b10 +
b11 *
#3050
0!
#3055
1!
b11 +
b00 *
#3060
0!
#3065
1!
b00 +
b01 *
#3070
0!
#3075
1!
b01 +
b10 *
#3080
0!
#3085
1!
b10 +
b11 *
#3090
0!
#3095
1!
b11 +
b00 *
#3100
0!
#3105
1!
b00 +
b01 *
#3110
0!
#3115
1!
b01 +
b10 *
#3120
0!
#3125
1!
b10 +
b11 *
#3130
0!
#3135
1!
b11 +
b00 *
#3140
0!
#3145
1!
b00 +
b01 *
#3150
0!
#3155
1!
b01 +
b10 *
#3160
0!
#3165
1!
b10 +
b11 *
#3170
0!
#3175
1!
b11 +
b00 *
#3180
0!
#3185
1!
b00 +
b01 *
#3190
0!
#3195
1!
b01 +
b10 *
#3200
0!
#3205
1!
b10 +
b11 *
#3210
0!
#3215
1!
b11 +
b00 *
#3220
0!
#3225
1!
b00 +
b01 *
#3230
0!
#3235
1!
b01 +
b10 *
#3240
0!
#3245
1!
b10 +
b11 *
#3250
0!
#3255
1!
b11 +
b00 *
#3260
0!
#3265
1!
b00 +
b01 *
#3270
0!
#3275
1!
b01 +
b10 *
#3280
0!
#3285
1!
b10 +
b11 *
#3290
0!
#3295
1!
b11 +
b00 *
#3300
0!
#3305
1!
b00 +
b01 *
#3310
0!
#3315
1!
b01 +
b10 *
#3320
0!
#3325
1!
b10 +
b11 *
#3330
0!
#3335
1!
b11 +
b00 *
#3340
0!
#3345
1!
b00 +
b01 *
#3350
0!
#3355
1!
b01 +
b10 *
#3360
0!
#3365
1!
b10 +
b11 *
#3370
0!
#3375
1!
b11 +
b00 *
#3380
0!
#3385
1!
b00 +
b01 *
#3390
0!
#3395
1!
b01 +
b10 *
#3400
0!
#3405
1!
b10 +
b11 *
#3410
0!
#3415
1!
b11 +
b00 *
#3420
0!
#3425
1!
b00 +
b01 *
#3430
0!
#3435
1!
b01 +
b10 *
#3440
0!
#3445
1!
b10 +
b11 *
#3450
0!
#3455
1!
b11 +
b00 *
#3460
0!
#3465
1!
b00 +
b01 *
#3470
0!
#3475
1!
b01 +
b10 *
#3480
0!
#3485
1!
b10 +
b11 *
#3490
0!
#3495
1!
b11 +
b00 *
#3500
0!
#3505
1!
b00 +
b01 *
#3510
0!
#3515
1!
b01 +
b10 *
#3520
0!
#3525
1!
b10 +
b11 *
#3530
0!
#3535
1!
b11 +
b00 *
#3540
0!
#3545
1!
b00 +
b01 *
#3550
0!
#3555
1!
b01 +
b10 *
#3560
0!
#3565
1!
b10 +
b11 *
#3570
0!
#3575
1!
b11 +
b00 *
#3580
0!
#3585
1!
b00 +
b01 *
#3590
0!
#3595
1!
b01 +
b10 *
#3600
0!
#3605
1!
b10 +
b11 *
#3610
0!
#3615
1!
b11 +
b00 *
#3620
0!
#3625
1!
b00 +
b01 *
#3630
0!
#3635
1!
b01 +
b10 *
#3640
0!
#3645
1!
b10 +
b11 *
#3650
0!
#3655
1!
b11 +
b00 *
#3660
0!
#3665
1!
b00 +
b01 *
#3670
0!
#3675
1!
b01 +
b10 *
#3680
0!
#3685
1!
b10 +
b11 *
#3690
0!
#3695
1!
b11 +
b00 *
#3700
0!
#3705
1!
b00 +
b01 *
#3710
0!
#3715
1!
b01 +
b10 *
#3720
0!
#3725
1!
b10 +
b11 *
#3730
0!
#3735
1!
b11 +
b00 *
#3740
0!
#3745
1!
b00 +
b01 *
#3750
0!
#3755
1!
b01 +
b10 *
#3760
0!
#3765
1!
b10 +
b11 *
#3770
0!
#3775
1!
b11 +
b00 *
#3780
0!
#3785
1!
b00 +
b01 *
#3790
0!
#3795
1!
b01 +
b10 *
#3800
0!
#3805
1!
b10 +
b11 *
#3810
0!
#3815
1!
b11 +
b00 *
#3820
0!
#3825
1!
b00 +
b01 *
#3830
0!
#3835
1!
b01 +
b10 *
#3840
0!
#3845
1!
b10 +
b11 *
#3850
0!
#3855
1!
b11 +
b00 *
#3860
0!
#3865
1!
b00 +
b01 *
#3870
0!
#3875
1!
b01 +
b10 *
#3880
0!
#3885
1!
b10 +
b11 *
#3890
0!
#3895
1!
b11 +
b00 *
#3900
0!
#3905
1!
b00 +
b01 *
#3910
0!
#3915
1!
b01 +
b10 *
#3920
0!
#3925
1!
b10 +
b11 *
#3930
0!
#3935
1!
b11 +
b00 *
#3940
0!
#3945
1!
b00 +
b01 *
#3950
0!
#3955
1!
b01 +
b10 *
#3960
0!
#3965
1!
b10 +
b11 *
#3970
0!
#3975
1!
b11 +
b00 *
#3980
0!
#3985
1!
b00 +
b01 *
#3990
0!
#3995
1!
b01 +
b10 *
#4000
0!
#4005
1!
b10 +
b11 *
#4010
0!
#4015
1!
b11 +
b00 *
#4020
0!
#4025
1!
b00 +
b01 *
#4030
0!
#4035
1!
b01 +
b10 *
#4040
0!
#4045
1!
b10 +
b11 *
#4050
0!
#4055
1!
b11 +
b00 *
#4060
0!
#4065
1!
b00 +
b01 *
#4070
0!
#4075
1!
b01 +
b10 *
#4080
0!
#4085
1!
b10 +
b11 *
#4090
0!
#4095
1!
b11 +
b00 *
#4100
0!
#4105
1!
b00 +
b01 *
#4110
0!
#4115
1!
b01 +
b10 *
#4120
0!
#4125
1!
b10 +
b11 *
#4130
0!
#4135
1!
b11 +
b00 *
#4140
0!
#4145
1!
b00 +
b01 *
#4150
0!
#4155
1!
b01 +
b10 *
#4160
0!
#4165
1!
b10 +
b11 *
#4170
0!
#4175
1!
b11 +
b00 *
#4180
0!
#4185
1!
b00 +
b01 *
#4190
0!
#4195
1!
b01 +
b10 *
#4200
0!
#4205
1!
b10 +
b11 *
#4210
0!
#4215
1!
b11 +
b00 *
#4220
0!
#4225
1!
b00 +
b01 *
#4230
0!
#4235
1!
b01 +
b10 *
#4240
0!
#4245
1!
b10 +
b11 *
#4250
0!
#4255
1!
b11 +
b00 *
#4260
0!
#4265
1!
b00 +
b01 *
#4270
0!
#4275
1!
b01 +
b10 *
#4280
0!
#4285
1!
b10 +
b11 *
#4290
0!
#4295
1!
b11 +
b00 *
#4300
0!
#4305
1!
b00 +
b01 *
#4310
0!
#4315
1!
b01 +
b10 *
#4320
0!
#4325
1!
b10 +
b11 *
#4330
0!
#4335
1!
b11 +
b00 *
#4340
0!
#4345
1!
b00 +
b01 *
#4350
0!
#4355
1!
b01 +
b10 *
#4360
0!
#4365
1!
b10 +
b11 *
#4370
0!
#4375
1!
b11 +
b00 *
#4380
0!
#4385
1!
b00 +
b01 *
#4390
0!
#4395
1!
b01 +
b10 *
#4400
0!
#4405
1!
b10 +
b11 *
#4410
0!
#4415
1!
b11 +
b00 *
#4420
0!
#4425
1!
b00 +
b01 *
#4430
0!
#4435
1!
b01 +
b10 *
#4440
0!
#4445
1!
b10 +
b11 *
#4450
0!
#4455
1!
b11 +
b00 *
#4460
0!
#4465
1!
b00 +
b01 *
#4470
0!
#4475
1!
b01 +
b10 *
#4480
0!
#4485
1!
b10 +
b11 *
#4490
0!
#4495
1!
b11 +
b00 *
#4500
0!
#4505
1!
b00 +
b01 *
#4510
0!
#4515
1!
b01 +
b10 *
#4520
0!
#4525
1!
b10 +
b11 *
#4530
0!
#4535
1!
b11 +
b00 *
#4540
0!
#4545
1!
b00 +
b01 *
#4550
0!
#4555
1!
b01 +
b10 *
#4560
0!
#4565
1!
b10 +
b11 *
#4570
0!
#4575
1!
b11 +
b00 *
#4580
0!
#4585
1!
b00 +
b01 *
#4590
0!
#4595
1!
b01 +
b10 *
#4600
0!
#4605
1!
b10 +
b11 *
#4610
0!
#4615
1!
b11 +
b00 *
#4620
0!
#4625
1!
b00 +
b01 *
#4630
0!
#4635
1!
b01 +
b10 *
#4640
0!
#4645
1!
b10 +
b11 *
#4650
0!
#4655
1!
b11 +
b00 *
#4660
0!
#4665
1!
b00 +
b01 *
#4670
0!
#4675
1!
b01 +
b10 *
#4680
0!
#4685
1!
b10 +
b11 *
#4690
0!
#4695
1!
b11 +
b00 *
#4700
0!
#4705
1!
b00 +
b01 *
#4710
0!
#4715
1!
b01 +
b10 *
#4720
0!
#4725
1!
b10 +
b11 *
#4730
0!
#4735
1!
b11 +
b00 *
#4740
0!
#4745
1!
b00 +
b01 *
#4750
0!
#4755
1!
b01 +
b10 *
#4760
0!
#4765
1!
b10 +
b11 *
#4770
0!
#4775
1!
b11 +
b00 *
#4780
0!
#4785
1!
b00 +
b01 *
#4790
0!
#4795
1!
b01 +
b10 *
#4800
0!
#4805
1!
b10 +
b11 *
#4810
0!
#4815
1!
b11 +
b00 *
#4820
0!
#4825
1!
b00 +
b01 *
#4830
0!
#4835
1!
b01 +
b10 *
#4840
0!
#4845
1!
b10 +
b11 *
#4850
0!
#4855
1!
b11 +
b00 *
#4860
0!
#4865
1!
b00 +
b01 *
#4870
0!
#4875
1!
b01 +
b10 *
#4880
0!
#4885
1!
b10 +
b11 *
#4890
0!
#4895
1!
b11 +
b00 *
#4900
0!
#4905
1!
b00 +
b01 *
#4910
0!
#4915
1!
b01 +
b10 *
#4920
0!
#4925
1!
b10 +
b11 *
#4930
0!
#4935
1!
b11 +
b00 *
#4940
0!
#4945
1!
b00 +
b01 *
#4950
0!
#4955
1!
b01 +
b10 *
#4960
0!
#4965
1!
b10 +
b11 *
#4970
0!
#4975
1!
b11 +
b00 *
#4980
0!
#4985
1!
b00 +
b01 *
#4990
0!
#4995
1!
b01 +
b10 *
#5000
0!
#5005
1!
b10 +
b11 *
#5010
0!
#5015
1!
b11 +
b00 *
#5020
0!
#5025
1!
b00 +
b01 *
#5030
0!
#5035
1!
b01 +
b10 *
#5040
0!
#5045
1!
b10 +
b11 *
#5050
0!
#5055
1!
b11 +
b00 *
#5060
0!
#5065
1!
b00 +
b01 *
#5070
0!
#5075
1!
b01 +
b10 *
#5080
0!
#5085
1!
b10 +
b11 *
#5090
0!
#5095
1!
b11 +
b00 *
#5100
0!
#5105
1!
b00 +
b01 *
#5110
0!
#5115
1!
b01 +
b10 *
#5120
0!
#5125
1!
b10 +
b11 *
#5130
0!
#5135
1!
b11 +
b00 *
#5140
0!
#5145
1!
b00 +
b01 *
#5150
0!
#5155
1!
b01 +
b10 *
#5160
0!
#5165
1!
b10 +
b11 *
#5170
0!
#5175
1!
b11 +
b00 *
#5180
0!
#5185
1!
b00 +
b01 *
#5190
0!
#5195
1!
b01 +
b10 *
#5200
0!
#5205
1!
b10 +
b11 *
#5210
0!
#5215
1!
b11 +
b00 *
#5220
0!
#5225
1!
b00 +
b01 *
#5230
0!
#5235
1!
b01 +
b10 *
#5240
0!
#5245
1!
b10 +
b11 *
#5250
0!
#5255
1!
b11 +
b00 *
#5260
0!
#5265
1!
b00 +
b01 *
#5270
0!
#5275
1!
b01 +
b10 *
#5280
0!
#5285
1!
b10 +
b11 *
#5290
0!
#5295
1!
b11 +
b00 *
#5300
0!
#5305
1!
b00 +
b01 *
#5310
0!
#5315
1!
b01 +
b10 *
#5320
0!
#5325
1!
b10 +
b11 *
#5330
0!
#5335
1!
b11 +
b00 *
#5340
0!
#5345
1!
b00 +
b01 *
#5350
0!
#5355
1!
b01 +
b10 *
#5360
0!
#5365
1!
b10 +
b11 *
#5370
0!
#5375
1!
b11 +
b00 *
#5380
0!
#5385
1!
b00 +
b01 *
#5390
0!
#5395
1!
b01 +
b10 *
#5400
0!
#5405
1!
b10 +
b11 *
#5410
0!
#5415
1!
b11 +
b00 *
#5420
0!
#5425
1!
b00 +
b01 *
#5430
0!
